[
    {
        "backend": "weboob",
        "deprecated": false,
        "name": "Association française d'épargne et de retraite",
        "uuid": "afer"
    },
    {
        "backend": "weboob",
        "customFields": [
            {
                "name": "phone",
                "type": "text"
            },
            {
                "name": "code_file",
                "type": "text"
            }
        ],
        "deprecated": false,
        "name": "Amazon Store Card",
        "uuid": "amazonstorecard"
    },
    {
        "backend": "weboob",
        "deprecated": false,
        "name": "American Express",
        "uuid": "americanexpress"
    },
    {
        "backend": "weboob",
        "customFields": [
            {
                "default": "ee",
                "name": "website",
                "type": "select",
                "values": [
                    {
                        "label": "Amundi Epargne Entreprise",
                        "value": "ee"
                    },
                    {
                        "label": "Amundi Tenue de Compte",
                        "value": "tc"
                    }
                ]
            }
        ],
        "deprecated": false,
        "name": "Amundi",
        "uuid": "amundi"
    },
    {
        "backend": "weboob",
        "deprecated": false,
        "name": "Apivie",
        "uuid": "apivie"
    },
    {
        "backend": "weboob",
        "deprecated": false,
        "name": "AXA Banque",
        "uuid": "axabanque"
    },
    {
        "backend": "weboob",
        "deprecated": false,
        "name": "Banque Accord",
        "uuid": "banqueaccord"
    },
    {
        "backend": "weboob",
        "customFields": [
            {
                "name": "website",
                "type": "select",
                "values": [
                    {
                        "label": "Alsace Lorraine Champagne (www.ibps.bpalc.banquepopulaire.fr)",
                        "value": "www.ibps.bpalc.banquepopulaire.fr"
                    },
                    {
                        "label": "Aquitaine Centre atlantique (www.ibps.bpaca.banquepopulaire.fr)",
                        "value": "www.ibps.bpaca.banquepopulaire.fr"
                    },
                    {
                        "label": "Auvergne Rhône Alpes (www.ibps.bpaura.banquepopulaire.fr)",
                        "value": "www.ibps.bpaura.banquepopulaire.fr"
                    },
                    {
                        "label": "Banque de Savoie (www.ibps.banquedesavoie.banquepopulaire.fr)",
                        "value": "www.ibps.banquedesavoie.banquepopulaire.fr"
                    },
                    {
                        "label": "Bourgogne Franche-Comté (www.ibps.bpbfc.banquepopulaire.fr)",
                        "value": "www.ibps.bpbfc.banquepopulaire.fr"
                    },
                    {
                        "label": "Crédit Maritime Atlantique (www.ibps.atlantique.creditmaritime.groupe.banquepopulaire.fr)",
                        "value": "www.ibps.atlantique.creditmaritime.groupe.banquepopulaire.fr"
                    },
                    {
                        "label": "Crédit Maritime Bretagne Normandie (www.ibps.bretagnenormandie.cmm.groupe.banquepopulaire.fr)",
                        "value": "www.ibps.bretagnenormandie.cmm.groupe.banquepopulaire.fr"
                    },
                    {
                        "label": "Grand Ouest (www.ibps.bpgo.banquepopulaire.fr)",
                        "value": "www.ibps.bpgo.banquepopulaire.fr"
                    },
                    {
                        "label": "Méditerranée (www.ibps.mediterranee.banquepopulaire.fr)",
                        "value": "www.ibps.mediterranee.banquepopulaire.fr"
                    },
                    {
                        "label": "Nord (www.ibps.nord.banquepopulaire.fr)",
                        "value": "www.ibps.nord.banquepopulaire.fr"
                    },
                    {
                        "label": "Occitane (www.ibps.occitane.banquepopulaire.fr)",
                        "value": "www.ibps.occitane.banquepopulaire.fr"
                    },
                    {
                        "label": "Rives de Paris (www.ibps.rivesparis.banquepopulaire.fr)",
                        "value": "www.ibps.rivesparis.banquepopulaire.fr"
                    },
                    {
                        "label": "Sud (www.ibps.sud.banquepopulaire.fr)",
                        "value": "www.ibps.sud.banquepopulaire.fr"
                    },
                    {
                        "label": "Val de France (www.ibps.valdefrance.banquepopulaire.fr)",
                        "value": "www.ibps.valdefrance.banquepopulaire.fr"
                    }
                ]
            }
        ],
        "deprecated": false,
        "name": "Banque Populaire",
        "uuid": "banquepopulaire"
    },
    {
        "backend": "weboob",
        "customFields": [
            {
                "name": "secret",
                "placeholderKey": "client.settings.secret_placeholder",
                "type": "password"
            }
        ],
        "deprecated": false,
        "name": "Barclays",
        "uuid": "barclays"
    },
    {
        "backend": "weboob",
        "deprecated": false,
        "name": "Banque Européenne Crédit Mutuel",
        "uuid": "becm"
    },
    {
        "backend": "weboob",
        "customFields": [
            {
                "name": "birthdate",
                "type": "text"
            }
        ],
        "deprecated": false,
        "name": "BforBank",
        "uuid": "bforbank"
    },
    {
        "backend": "weboob",
        "deprecated": false,
        "name": "Binck",
        "uuid": "binck"
    },
    {
        "backend": "weboob",
        "deprecated": false,
        "name": "BNP Cartes Entreprises",
        "uuid": "bnpcards"
    },
    {
        "backend": "weboob",
        "customFields": [
            {
                "default": "pp",
                "name": "website",
                "type": "select",
                "values": [
                    {
                        "label": "Particuliers/Professionnels",
                        "value": "pp"
                    },
                    {
                        "label": "Entreprises et PME (nouveau site)",
                        "value": "ent2"
                    },
                    {
                        "label": "Entreprises",
                        "value": "ent"
                    },
                    {
                        "label": "HelloBank",
                        "value": "hbank"
                    }
                ]
            }
        ],
        "deprecated": false,
        "name": "BNP Paribas",
        "uuid": "bnporc"
    },
    {
        "backend": "weboob",
        "customFields": [
            {
                "default": "personeo",
                "name": "website",
                "type": "select",
                "values": [
                    {
                        "label": "PER Entreprises (Visiogo)",
                        "value": "visiogo"
                    },
                    {
                        "label": "PEE, PERCO (Personeo)",
                        "value": "personeo"
                    }
                ]
            }
        ],
        "deprecated": false,
        "name": "BNP Épargne Salariale",
        "uuid": "bnppere"
    },
    {
        "backend": "weboob",
        "deprecated": false,
        "name": "Bolden",
        "uuid": "bolden"
    },
    {
        "backend": "weboob",
        "deprecated": false,
        "name": "Boursorama",
        "uuid": "boursorama"
    },
    {
        "backend": "weboob",
        "customFields": [
            {
                "default": "par",
                "name": "website",
                "type": "select",
                "values": [
                    {
                        "label": "Particuliers",
                        "value": "par"
                    },
                    {
                        "label": "Professionnels",
                        "value": "pro"
                    }
                ]
            }
        ],
        "deprecated": false,
        "name": "La Banque Postale",
        "uuid": "bp"
    },
    {
        "backend": "weboob",
        "customFields": [
            {
                "default": "bred",
                "name": "website",
                "type": "select",
                "values": [
                    {
                        "label": "DispoBank",
                        "value": "dispobank"
                    },
                    {
                        "label": "BRED",
                        "value": "bred"
                    }
                ]
            }
        ],
        "deprecated": false,
        "name": "Bred",
        "uuid": "bred"
    },
    {
        "backend": "weboob",
        "customFields": [
            {
                "default": "weak",
                "name": "auth_type",
                "type": "select",
                "values": [
                    {
                        "label": "Sesame (pro)",
                        "value": "strong"
                    },
                    {
                        "label": "Code confidentiel (pro)",
                        "value": "weak"
                    }
                ]
            }
        ],
        "deprecated": false,
        "name": "BTP Banque",
        "uuid": "btpbanque"
    },
    {
        "backend": "weboob",
        "deprecated": false,
        "name": "Crédit Agricole - Épargne Longue des Salariés",
        "uuid": "caels"
    },
    {
        "backend": "weboob",
        "customFields": [
            {
                "default": "www.caisse-epargne.fr",
                "name": "website",
                "type": "select",
                "values": [
                    {
                        "label": "Banque BCP (www.banquebcp.fr)",
                        "value": "www.banquebcp.fr"
                    },
                    {
                        "label": "Caisse d'Épargne (www.caisse-epargne.fr)",
                        "value": "www.caisse-epargne.fr"
                    }
                ]
            }
        ],
        "deprecated": false,
        "name": "Caisse d'Épargne",
        "uuid": "caissedepargne"
    },
    {
        "backend": "weboob",
        "deprecated": false,
        "name": "AXA Épargne Salariale",
        "uuid": "capeasi"
    },
    {
        "backend": "weboob",
        "deprecated": false,
        "name": "Carrefour Banque",
        "uuid": "carrefourbanque"
    },
    {
        "backend": "weboob",
        "deprecated": false,
        "name": "CIC",
        "uuid": "cic"
    },
    {
        "backend": "weboob",
        "deprecated": false,
        "name": "CIC Épargne Salariale",
        "uuid": "cices"
    },
    {
        "backend": "weboob",
        "deprecated": false,
        "name": "Citibank",
        "uuid": "citibank"
    },
    {
        "backend": "weboob",
        "customFields": [
            {
                "default": "par",
                "name": "website",
                "type": "select",
                "values": [
                    {
                        "label": "Particuliers",
                        "value": "par"
                    },
                    {
                        "label": "Professionnels",
                        "value": "pro"
                    }
                ]
            }
        ],
        "deprecated": false,
        "name": "Crédit Mutuel de Bretagne",
        "uuid": "cmb"
    },
    {
        "backend": "weboob",
        "deprecated": false,
        "name": "Crédit Mutuel Épargne Salariale",
        "uuid": "cmes"
    },
    {
        "backend": "weboob",
        "customFields": [
            {
                "default": "par",
                "name": "website",
                "type": "select",
                "values": [
                    {
                        "label": "Particuliers",
                        "value": "par"
                    },
                    {
                        "label": "Professionnels",
                        "value": "pro"
                    }
                ]
            }
        ],
        "deprecated": false,
        "name": "Crédit Mutuel Massif Central",
        "uuid": "cmmc"
    },
    {
        "backend": "weboob",
        "customFields": [
            {
                "default": "par",
                "name": "website",
                "type": "select",
                "values": [
                    {
                        "label": "Particuliers",
                        "value": "par"
                    },
                    {
                        "label": "Professionnels",
                        "value": "pro"
                    }
                ]
            }
        ],
        "deprecated": false,
        "name": "Crédit Mutuel Sud-Ouest",
        "uuid": "cmso"
    },
    {
        "backend": "weboob",
        "customFields": [
            {
                "name": "website",
                "type": "select",
                "values": [
                    {
                        "label": "Alpes Provence (m.ca-alpesprovence.fr)",
                        "value": "m.ca-alpesprovence.fr"
                    },
                    {
                        "label": "Alsace-Vosges (m.ca-alsace-vosges.fr)",
                        "value": "m.ca-alsace-vosges.fr"
                    },
                    {
                        "label": "Anjou Maine (m.ca-anjou-maine.fr)",
                        "value": "m.ca-anjou-maine.fr"
                    },
                    {
                        "label": "Aquitaine (m.ca-aquitaine.fr)",
                        "value": "m.ca-aquitaine.fr"
                    },
                    {
                        "label": "Atlantique Vendée (m.ca-atlantique-vendee.fr)",
                        "value": "m.ca-atlantique-vendee.fr"
                    },
                    {
                        "label": "Brie Picardie (m.ca-briepicardie.fr)",
                        "value": "m.ca-briepicardie.fr"
                    },
                    {
                        "label": "Champagne Bourgogne (m.ca-cb.fr)",
                        "value": "m.ca-cb.fr"
                    },
                    {
                        "label": "Centre France (m.ca-centrefrance.fr)",
                        "value": "m.ca-centrefrance.fr"
                    },
                    {
                        "label": "Centre Loire (m.ca-centreloire.fr)",
                        "value": "m.ca-centreloire.fr"
                    },
                    {
                        "label": "Centre Ouest (m.ca-centreouest.fr)",
                        "value": "m.ca-centreouest.fr"
                    },
                    {
                        "label": "Centre Est (m.ca-centrest.fr)",
                        "value": "m.ca-centrest.fr"
                    },
                    {
                        "label": "Charente Périgord (m.ca-charente-perigord.fr)",
                        "value": "m.ca-charente-perigord.fr"
                    },
                    {
                        "label": "Charente-Maritime Deux-Sèvres (m.ca-cmds.fr)",
                        "value": "m.ca-cmds.fr"
                    },
                    {
                        "label": "Corse (m.ca-corse.fr)",
                        "value": "m.ca-corse.fr"
                    },
                    {
                        "label": "Côtes d'Armor (m.ca-cotesdarmor.fr)",
                        "value": "m.ca-cotesdarmor.fr"
                    },
                    {
                        "label": "Des Savoie (m.ca-des-savoie.fr)",
                        "value": "m.ca-des-savoie.fr"
                    },
                    {
                        "label": "Finistere (m.ca-finistere.fr)",
                        "value": "m.ca-finistere.fr"
                    },
                    {
                        "label": "Franche-Comté (m.ca-franchecomte.fr)",
                        "value": "m.ca-franchecomte.fr"
                    },
                    {
                        "label": "Guadeloupe (m.ca-guadeloupe.fr)",
                        "value": "m.ca-guadeloupe.fr"
                    },
                    {
                        "label": "Ille-et-Vilaine (m.ca-illeetvilaine.fr)",
                        "value": "m.ca-illeetvilaine.fr"
                    },
                    {
                        "label": "Languedoc (m.ca-languedoc.fr)",
                        "value": "m.ca-languedoc.fr"
                    },
                    {
                        "label": "Loire Haute Loire (m.ca-loirehauteloire.fr)",
                        "value": "m.ca-loirehauteloire.fr"
                    },
                    {
                        "label": "Lorraine (m.ca-lorraine.fr)",
                        "value": "m.ca-lorraine.fr"
                    },
                    {
                        "label": "Martinique Guyane (m.ca-martinique.fr)",
                        "value": "m.ca-martinique.fr"
                    },
                    {
                        "label": "Morbihan (m.ca-morbihan.fr)",
                        "value": "m.ca-morbihan.fr"
                    },
                    {
                        "label": "Nord Midi-Pyrénées (m.ca-nmp.fr)",
                        "value": "m.ca-nmp.fr"
                    },
                    {
                        "label": "Nord Est (m.ca-nord-est.fr)",
                        "value": "m.ca-nord-est.fr"
                    },
                    {
                        "label": "Nord de France (m.ca-norddefrance.fr)",
                        "value": "m.ca-norddefrance.fr"
                    },
                    {
                        "label": "Normandie Seine (m.ca-normandie-seine.fr)",
                        "value": "m.ca-normandie-seine.fr"
                    },
                    {
                        "label": "Normandie (m.ca-normandie.fr)",
                        "value": "m.ca-normandie.fr"
                    },
                    {
                        "label": "Ile-de-France (m.ca-paris.fr)",
                        "value": "m.ca-paris.fr"
                    },
                    {
                        "label": "Provence Côte d'Azur (m.ca-pca.fr)",
                        "value": "m.ca-pca.fr"
                    },
                    {
                        "label": "Réunion (m.ca-reunion.fr)",
                        "value": "m.ca-reunion.fr"
                    },
                    {
                        "label": "Sud Méditerranée (m.ca-sudmed.fr)",
                        "value": "m.ca-sudmed.fr"
                    },
                    {
                        "label": "Sud Rhône Alpes (m.ca-sudrhonealpes.fr)",
                        "value": "m.ca-sudrhonealpes.fr"
                    },
                    {
                        "label": "Toulouse 31 (m.ca-toulouse31.fr)",
                        "value": "m.ca-toulouse31.fr"
                    },
                    {
                        "label": "Tourraine Poitou (m.ca-tourainepoitou.fr)",
                        "value": "m.ca-tourainepoitou.fr"
                    },
                    {
                        "label": "Val de France (m.ca-valdefrance.fr)",
                        "value": "m.ca-valdefrance.fr"
                    },
                    {
                        "label": "Pyrénées Gascogne (m.lefil.com)",
                        "value": "m.lefil.com"
                    }
                ]
            }
        ],
        "deprecated": false,
        "name": "Crédit Agricole",
        "uuid": "cragr"
    },
    {
        "backend": "weboob",
        "customFields": [
            {
                "default": "particular",
                "name": "auth_type",
                "type": "select",
                "values": [
                    {
                        "label": "Sesame (pro)",
                        "value": "strong"
                    },
                    {
                        "label": "Code confidentiel (pro)",
                        "value": "weak"
                    },
                    {
                        "label": "Interface Particuliers",
                        "value": "particular"
                    }
                ]
            }
        ],
        "deprecated": false,
        "name": "Crédit Coopératif",
        "uuid": "creditcooperatif"
    },
    {
        "backend": "weboob",
        "customFields": [
            {
                "default": "www.credit-du-nord.fr",
                "name": "website",
                "type": "select",
                "values": [
                    {
                        "label": "Banque Courtois (www.banque-courtois.fr)",
                        "value": "www.banque-courtois.fr"
                    },
                    {
                        "label": "Banque Kolb (www.banque-kolb.fr)",
                        "value": "www.banque-kolb.fr"
                    },
                    {
                        "label": "Banque Laydernier (www.banque-laydernier.fr)",
                        "value": "www.banque-laydernier.fr"
                    },
                    {
                        "label": "Banque Nuger (www.banque-nuger.fr)",
                        "value": "www.banque-nuger.fr"
                    },
                    {
                        "label": "Banque Rhône-Alpes (www.banque-rhone-alpes.fr)",
                        "value": "www.banque-rhone-alpes.fr"
                    },
                    {
                        "label": "Crédit du Nord (www.credit-du-nord.fr)",
                        "value": "www.credit-du-nord.fr"
                    },
                    {
                        "label": "Société Marseillaise de Crédit (www.smc.fr)",
                        "value": "www.smc.fr"
                    },
                    {
                        "label": "Tarneaud (www.tarneaud.fr)",
                        "value": "www.tarneaud.fr"
                    }
                ]
            }
        ],
        "deprecated": false,
        "name": "Crédit du Nord, Banque Courtois, Kolb, Nuger, Laydernier, Tarneaud, Société Marseillaise de Crédit",
        "uuid": "creditdunord"
    },
    {
        "backend": "weboob",
        "deprecated": false,
        "name": "Site de gestion du PEE du groupe Credit du nord",
        "uuid": "creditdunordpee"
    },
    {
        "backend": "weboob",
        "deprecated": false,
        "name": "Crédit Mutuel",
        "uuid": "creditmutuel"
    },
    {
        "backend": "weboob",
        "deprecated": false,
        "name": "Banque Delubac & Cie",
        "uuid": "delubac"
    },
    {
        "backend": "weboob",
        "customFields": [
            {
                "name": "secret",
                "placeholderKey": "client.settings.secret_placeholder",
                "type": "password"
            }
        ],
        "deprecated": false,
        "name": "HSBC Épargne Salariale",
        "uuid": "erehsbc"
    },
    {
        "backend": "weboob",
        "deprecated": false,
        "name": "Société Générale Épargne Salariale",
        "uuid": "esalia"
    },
    {
        "backend": "weboob",
        "deprecated": false,
        "name": "Fortuneo",
        "uuid": "fortuneo"
    },
    {
        "backend": "weboob",
        "customFields": [
            {
                "default": "espaceclient.ganassurances.fr",
                "name": "website",
                "type": "select",
                "values": [
                    {
                        "label": "Gan Assurances (espaceclient.ganassurances.fr)",
                        "value": "espaceclient.ganassurances.fr"
                    },
                    {
                        "label": "Gan Patrimoine (espaceclient.ganpatrimoine.fr)",
                        "value": "espaceclient.ganpatrimoine.fr"
                    },
                    {
                        "label": "Groupama Banque (espaceclient.groupama.fr)",
                        "value": "espaceclient.groupama.fr"
                    }
                ]
            }
        ],
        "deprecated": false,
        "name": "Gan Assurances",
        "uuid": "ganassurances"
    },
    {
        "backend": "weboob",
        "deprecated": false,
        "name": "GMF",
        "uuid": "gmf"
    },
    {
        "backend": "weboob",
        "deprecated": false,
        "name": "Groupama Épargne Salariale",
        "uuid": "groupamaes"
    },
    {
        "backend": "weboob",
        "customFields": [
            {
                "name": "secret",
                "placeholderKey": "client.settings.secret_placeholder",
                "type": "password"
            }
        ],
        "deprecated": false,
        "name": "HSBC France",
        "uuid": "hsbc"
    },
    {
        "backend": "weboob",
        "deprecated": false,
        "name": "Humanis Épargne Salariale",
        "uuid": "humanis"
    },
    {
        "backend": "weboob",
        "customFields": [
            {
                "name": "birthday",
                "placeholderKey": "client.settings.birthday_placeholder",
                "type": "text"
            }
        ],
        "deprecated": false,
        "name": "ING Direct",
        "uuid": "ing"
    },
    {
        "backend": "weboob",
        "deprecated": false,
        "name": "Kiwibank",
        "uuid": "kiwibank"
    },
    {
        "backend": "weboob",
        "customFields": [
            {
                "default": "par",
                "name": "website",
                "type": "select",
                "values": [
                    {
                        "label": "Particuliers",
                        "value": "par"
                    },
                    {
                        "label": "Entreprises",
                        "value": "ent"
                    },
                    {
                        "label": "Professionnels",
                        "value": "pro"
                    },
                    {
                        "label": "e.LCL",
                        "value": "elcl"
                    },
                    {
                        "label": "Espace Pro",
                        "value": "esp"
                    }
                ]
            }
        ],
        "deprecated": false,
        "name": "LCL",
        "uuid": "lcl"
    },
    {
        "backend": "weboob",
        "deprecated": false,
        "name": "MyEdenRed",
        "uuid": "myedenred"
    },
    {
        "backend": "weboob",
        "deprecated": false,
        "name": "Bank N26",
        "uuid": "n26"
    },
    {
        "backend": "weboob",
        "deprecated": false,
        "name": "Nalo",
        "uuid": "nalo"
    },
    {
        "backend": "weboob",
        "deprecated": false,
        "name": "La Nef",
        "uuid": "nef"
    },
    {
        "backend": "weboob",
        "deprecated": false,
        "name": "Oney",
        "uuid": "oney"
    },
    {
        "backend": "weboob",
        "deprecated": false,
        "name": "PayPal",
        "uuid": "paypal"
    },
    {
        "backend": "weboob",
        "deprecated": false,
        "name": "Prado Épargne Salariale",
        "uuid": "pradoepargne"
    },
    {
        "backend": "weboob",
        "customFields": [
            {
                "default": "par",
                "name": "website",
                "type": "select",
                "values": [
                    {
                        "label": "Particuliers",
                        "value": "par"
                    },
                    {
                        "label": "Entreprises",
                        "value": "ent"
                    },
                    {
                        "label": "Professionnels",
                        "value": "pro"
                    }
                ]
            }
        ],
        "deprecated": false,
        "name": "Société Générale",
        "uuid": "societegenerale"
    },
    {
        "backend": "weboob",
        "deprecated": false,
        "name": "Sogecarte Net",
        "uuid": "sogecartenet"
    },
    {
        "backend": "weboob",
        "deprecated": false,
        "name": "Spirica",
        "uuid": "spirica"
    },
    {
        "backend": "weboob",
        "customFields": [
            {
                "name": "broker",
                "type": "select",
                "values": [
                    {
                        "label": "assurancevie.com",
                        "value": "assurancevie.com"
                    },
                    {
                        "label": "mes-placements.fr",
                        "value": "mes-placements.fr"
                    },
                    {
                        "label": "linxea",
                        "value": "linxea"
                    },
                    {
                        "label": "epargnissimo",
                        "value": "epargnissimo"
                    }
                ]
            }
        ],
        "deprecated": false,
        "name": "Assurance-vie Suravenir à travers différents courtiers (assurancevie.com, linxea, ...)",
        "uuid": "suravenir"
    },
    {
        "backend": "weboob",
        "deprecated": false,
        "name": "Themis",
        "uuid": "themisbanque"
    },
    {
        "backend": "weboob",
        "deprecated": false,
        "name": "Tickets CESU Edenred",
        "uuid": "ticketscesu"
    },
    {
        "backend": "weboob",
        "deprecated": false,
        "name": "Victoria's Secret Angel Card",
        "uuid": "vicseccard"
    },
    {
        "backend": "weboob",
        "deprecated": false,
        "name": "Yomoni",
        "uuid": "yomoni"
    },
    {
        "backend": "manual",
        "deprecated": false,
        "name": "Manual Bank",
        "uuid": "manual"
    },
    {
        "backend": "weboob",
        "deprecated": true,
        "name": "Wells Fargo",
        "uuid": "wellsfargo"
    },
    {
        "backend": "weboob",
        "deprecated": true,
        "name": "City Bank",
        "uuid": "citelis"
    },
    {
        "backend": "weboob",
        "deprecated": true,
        "name": "Allo Resto",
        "uuid": "alloresto"
    },
    {
        "backend": "weboob",
        "customFields": [
            {
                "default": "par",
                "name": "website",
                "type": "select",
                "values": [
                    {
                        "label": "Particuliers",
                        "value": "par"
                    },
                    {
                        "label": "Professionnels",
                        "value": "pro"
                    }
                ]
            },
            {
                "name": "foobar",
                "type": "text"
            }
        ],
        "deprecated": false,
        "name": "Fake bank module",
        "uuid": "fakeweboobbank"
    },
    {
        "backend": "mock",
        "deprecated": false,
        "name": "Fake Bank 1",
        "uuid": "fakebank1"
    },
    {
        "backend": "mock",
        "customFields": [
            {
                "default": "sublime",
                "name": "favorite_code_editor",
                "type": "select",
                "values": [
                    {
                        "label": "Emacs",
                        "value": "emacs"
                    },
                    {
                        "label": "Sublime",
                        "value": "sublime"
                    },
                    {
                        "label": "Vim",
                        "value": "vim"
                    }
                ]
            },
            {
                "name": "secret",
                "placeholderKey": "client.settings.secret_placeholder",
                "type": "password"
            }
        ],
        "deprecated": false,
        "name": "Fake Bank 2",
        "uuid": "fakebank2"
    }
]